Modèles hiérarchiques pour les sciences de la vie - Models with one level of hierarchy
…
group_numbers

Adelie_Torgersen    Adelie_Biscoe     Adelie_Dream    Gentoo_Biscoe 
               1                2                3                4 
 Chinstrap_Dream 
               5 

penguin_groupid <- penguin_mass_island |> 
  mutate(group_id = group_numbers[sp_island])

penguin_groupid

# A tibble: 342 × 4
   sp_island        body_mass_g mass_kg group_id
   <chr>                  <int>   <dbl>    <int>
 1 Adelie_Torgersen        3750    3.75        1
 2 Adelie_Torgersen        3800    3.8         1
 3 Adelie_Torgersen        3250    3.25        1
 4 Adelie_Torgersen        3450    3.45        1
 5 Adelie_Torgersen        3650    3.65        1
 6 Adelie_Torgersen        3625    3.62        1
 7 Adelie_Torgersen        4675    4.68        1
 8 Adelie_Torgersen        3475    3.48        1
 9 Adelie_Torgersen        4250    4.25        1
10 Adelie_Torgersen        3300    3.3         1
# ℹ 332 more rows
…
