Modèles hiérarchiques pour les sciences de la vie - Data simulation
…
Running MCMC with 4 sequential chains...

Chain 1 finished in 0.0 seconds.
Chain 2 finished in 0.0 seconds.
Chain 3 finished in 0.0 seconds.
Chain 4 finished in 0.0 seconds.

All 4 chains finished successfully.
Mean chain execution time: 0.0 seconds.
Total execution time: 0.5 seconds.

poisson_model_samp$summary()

# A tibble: 23 × 10
   variable          mean median    sd   mad    q5   q95  rhat ess_bulk ess_tail
   <chr>            <num>  <num> <num> <num> <num> <num> <num>    <num>    <num>
 1 lp__             671.   671.  0.737 0.305 670.  672.   1.00    1874.    1892.
 2 avg_birds_per_p…  17.3   17.3 0.917 0.896  15.8  18.8  1.00    1624.    1966.
 3 bird_count[1]     17.4   17   4.27  4.45   11    25    1.00    3757.    3724.
 4 bird_count[2]     17.3   17   4.24  4.45   11    24    1.00    3673.    3608.
 5 bird_count[3]     17.3   17   4.35  4.45   10    25    1.00    3759.    3752.
 6 bird_count[4]     17.4   17   4.24  4.45   10    24    1.00    3856.    3646.
 7 bird_count[5]     17.3   17   4.24  4.45   11    24    1.00    3964.    3700.
 8 bird_count[6]     17.3   17   4.30  4.45   10    25    1.00    4021.    4008.
 9 bird_count[7]     17.3   17   4.30  4.45   11    25    1.00    3834.    3884.
10 bird_count[8]     17.2   17   4.22  4.45   11    24    1.00    3796.    3900.
# ℹ 13 more rows
…
