Modèles hiérarchiques pour les sciences de la vie - Univariate regression
…
Chain 1 finished in 0.3 seconds.
Chain 2 finished in 0.3 seconds.
Chain 3 finished in 0.2 seconds.
Chain 4 finished in 0.3 seconds.

All 4 chains finished successfully.
Mean chain execution time: 0.3 seconds.
Total execution time: 1.4 seconds.

Note that the sign of the slope is different now!

normal_reg_spp_post$summary()

# A tibble: 42 × 10
   variable         mean   median     sd    mad       q5      q95  rhat ess_bulk
   <chr>           <num>    <num>  <num>  <num>    <num>    <num> <num>    <num>
 1 lp__         -157.    -157.    1.61   1.47   -160.    -155.     1.00    1626.
 2 intercept[1]   19.4     19.4   0.124  0.119    19.2     19.6    1.00    1836.
 3 intercept[2]   17.4     17.4   0.146  0.147    17.2     17.7    1.00    2436.
 4 intercept[3]   14.3     14.3   0.108  0.105    14.1     14.5    1.00    2032.
 5 slope           0.199    0.199 0.0183 0.0182    0.168    0.229  1.00    1555.
 6 sigma           0.956    0.955 0.0369 0.0366    0.897    1.02   1.00    3392.
 7 post_bill_d…   17.0     17.0   0.973  0.993    15.4     18.6    1.00    3744.
 8 post_bill_d…   18.1     18.1   0.966  0.966    16.5     19.7    1.00    4495.
 9 post_bill_d…   19.2     19.2   0.982  0.971    17.6     20.8    1.00    3613.
10 post_bill_d…   20.3     20.3   0.976  0.994    18.7     21.9    1.00    3978.
# ℹ 32 more rows
# ℹ 1 more variable: ess_tail <num>
…
