Modèles hiérarchiques pour les sciences de la vie – index
…
All 4 chains finished successfully.
Mean chain execution time: 1.1 seconds.
Total execution time: 4.7 seconds.

samp_group_avg_partpool |> 
  gather_rvars(group_mean[spp]) |> 
  arrange(median(.value))

# A tibble: 70 × 3
     spp .variable         .value
   <int> <chr>         <rvar[1d]>
 1    57 group_mean  -0.88 ± 0.25
 2    62 group_mean  -0.62 ± 0.22
 3    61 group_mean   0.25 ± 0.14
 4    54 group_mean   0.39 ± 0.14
 5    55 group_mean   0.54 ± 0.13
 6    44 group_mean   0.57 ± 0.12
 7    24 group_mean   0.84 ± 0.11
 8    23 group_mean   0.85 ± 0.11
 9    41 group_mean   0.85 ± 0.11
10    63 group_mean   0.91 ± 0.11
# … with 60 more rows
…
