Summarizing many univariate models – Modèles hiérarchiques pour les sciences de la vie
…
Plot and compare to frequentist point estimates

long_rvars <- tidybayes::gather_rvars(
  all_species_unpooled_posterior, 
             intercept[spp_id], slope[spp_id]) 

mite_many_glm_coefs |> 
  select(spp, term, estimate)

# A tibble: 70 × 3
# Groups:   spp [35]
   spp      term        estimate
   <chr>    <chr>          <dbl>
 1 Brachy   (Intercept)   2.43  
 2 Brachy   water        -0.547 
 3 Ceratoz1 (Intercept)   0.466 
 4 Ceratoz1 water         0.0273
 5 Ceratoz3 (Intercept)  -0.237 
 6 Ceratoz3 water         0.280 
 7 Eupelops (Intercept)  -0.464 
 8 Eupelops water        -0.535 
 9 FSET     (Intercept)  -0.644 
10 FSET     water        -1.82  
# ℹ 60 more rows
…
